{
  "references": "Zambian cuisine is heavily centered around nshima. Nshima is a food prepared from pounded white maize. Nshima is part of nearly every Zambian meal. In addition to nshima, Zambian cuisine includes various types of stew, cooked vegetables and different types of beer. Dried fish and insects are also eaten.",
  "candidates": "Zambian cuisine is centered around nshima. Nshima is food. Nshima is part of Zambian meal. Zambian cuisine includes various type of stew. insect and Dried fish are eated"
}