{
  "references": "Probability theory is the branch of mathematics concerned with probability. Although there are several different probability interpretations, probability theory treats the concept in a rigorous mathematical manner by expressing it through a set of axioms. Typically these axioms formalise probability in terms of a probability space, which assigns a measure taking values between 0 and 1, termed the probability measure, to a set of outcomes called the sample space. Any specified subset of these outcomes is called an event.",
  "candidates": "Probability theory is branch of mathematics. probability theory treats concept in rigorous mathematical manner. axiom assigns measure in term of probability space to set of outcome. specified subset of outcome is called."
}