{
  "candidates": [
    {
      "bleu": 0.5346999155254861,
      "rouge": [
        {
          "rouge-1": {
            "f": 0.181818179803719,
            "p": 0.8,
            "r": 0.10256410256410256
          },
          "rouge-2": {
            "f": 0.08196721160978235,
            "p": 0.5,
            "r": 0.044642857142857144
          },
          "rouge-l": {
            "f": 0.10403068434159156,
            "p": 0.8,
            "r": 0.10256410256410256
          }
        }
      ],
      "sent": "Algebra is one of broad part of mathematics with number theory."
    },
    {
      "bleu": 0.25103789467136073,
      "rouge": [
        {
          "rouge-1": {
            "f": 0.11904761772108843,
            "p": 0.8333333333333334,
            "r": 0.0641025641025641
          },
          "rouge-2": {
            "f": 0.05128205046387611,
            "p": 0.6,
            "r": 0.026785714285714284
          },
          "rouge-l": {
            "f": 0.0644525326054093,
            "p": 0.8333333333333334,
            "r": 0.0641025641025641
          }
        }
      ],
      "sent": "Algebra is study of mathematical symbol."
    },
    {
      "bleu": 0.5505895861682101,
      "rouge": [
        {
          "rouge-1": {
            "f": 0.16470588084152252,
            "p": 1.0,
            "r": 0.08974358974358974
          },
          "rouge-2": {
            "f": 0.08403361233811173,
            "p": 0.7142857142857143,
            "r": 0.044642857142857144
          },
          "rouge-l": {
            "f": 0.09040103601850222,
            "p": 1.0,
            "r": 0.08974358974358974
          }
        }
      ],
      "sent": "It is unifying thread of all of mathematics."
    },
    {
      "bleu": 0.49399392615417476,
      "rouge": [
        {
          "rouge-1": {
            "f": 0.14285714153061227,
            "p": 1.0,
            "r": 0.07692307692307693
          },
          "rouge-2": {
            "f": 0.0854700846519103,
            "p": 1.0,
            "r": 0.044642857142857144
          },
          "rouge-l": {
            "f": 0.07734303912648909,
            "p": 1.0,
            "r": 0.07692307692307693
          }
        }
      ],
      "sent": "It includes everything from elementary equation."
    },
    {
      "bleu": 1.2330792623160846e-102,
      "rouge": [
        {
          "rouge-1": {
            "f": 0.11764705731211073,
            "p": 0.7142857142857143,
            "r": 0.0641025641025641
          },
          "rouge-2": {
            "f": 0.033898304119505916,
            "p": 0.3333333333333333,
            "r": 0.017857142857142856
          },
          "rouge-l": {
            "f": 0.06457216858464841,
            "p": 0.7142857142857143,
            "r": 0.0641025641025641
          }
        }
      ],
      "sent": "More basic part of algebra is called."
    },
    {
      "bleu": 0.27504777407275244,
      "rouge": [
        {
          "rouge-1": {
            "f": 0.09638554103643489,
            "p": 0.8,
            "r": 0.05128205128205128
          },
          "rouge-2": {
            "f": 0.05172413726516052,
            "p": 0.75,
            "r": 0.026785714285714284
          },
          "rouge-l": {
            "f": 0.05147921639347077,
            "p": 0.8,
            "r": 0.05128205128205128
          }
        }
      ],
      "sent": "More abstract parts are called."
    },
    {
      "bleu": 0.15490891239386262,
      "rouge": [
        {
          "rouge-1": {
            "f": 0.07317073077929805,
            "p": 0.75,
            "r": 0.038461538461538464
          },
          "rouge-2": {
            "f": 0.034782608187523635,
            "p": 0.6666666666666666,
            "r": 0.017857142857142856
          },
          "rouge-l": {
            "f": 0.038557486473280084,
            "p": 0.75,
            "r": 0.038461538461538464
          }
        }
      ],
      "sent": "Elementary algebra is considerred."
    },
    {
      "bleu": 0.6370158179274829,
      "rouge": [
        {
          "rouge-1": {
            "f": 0.1860465099405084,
            "p": 1.0,
            "r": 0.10256410256410256
          },
          "rouge-2": {
            "f": 0.08403361233811173,
            "p": 0.7142857142857143,
            "r": 0.044642857142857144
          },
          "rouge-l": {
            "f": 0.10353131367564883,
            "p": 1.0,
            "r": 0.10256410256410256
          }
        }
      ],
      "sent": "Abstract algebra is major area in advanced mathematics."
    }
  ],
  "references": "Algebra is one of the broad parts of mathematics, together with number theory, geometry and analysis. In its most general form, algebra is the study of mathematical symbols and the rules for manipulating these symbols. It is a unifying thread of almost all of mathematics. It includes everything from elementary equation solving to the study of abstractions such as groups, rings, and fields. The more basic parts of algebra are called elementary algebra. The more abstract parts are called abstract algebra or modern algebra. Elementary algebra is generally considered to be essential for any study of mathematics, science, or engineering, as well as such applications as medicine and economics. Abstract algebra is a major area in advanced mathematics, studied primarily by professional mathematicians."
}